{
	"name": "Kyle",
	"favoriteNumber": 7,
	"isProgrammer": true,
	"hobbies": [
		"Weight Lifting",
		"Reading Comics",
		"Playing the Guitar"
	],
	"friends": [
		{
			"name": "Robin",
			"isProgrammer":true
		}

		{
			"name": "Daniel",
			"isProgrammer":false
		}

		{
			"name": "Oswald",
			"isProgrammer":true
		}
	]
}